lc= 0.0002;
lc1= 0.0005;



Point(0) = {0, 0, 0,lc1};
Point(1) = {0.135, 0, 0,lc1};
Point(2) = {0.135, 0.015, 0,lc1};

Point(3) = {0.150, 0.015, 0, lc};
Point(4) = {0.150, 0.065, 0, lc};
Point(5) = {0.151, 0.065, 0, lc};
Point(6) = {0.151, 0.015, 0, lc};

Point(7) = {0.400, 0.015, 0, lc1};
Point(8) = {0.400, 0.080, 0, lc1};
Point(9) = {0, 0.080, 0, lc1};


                      







Mesh.MshFileVersion = 2;







//+
Line(1) = {0, 1};
//+
Line(2) = {1, 2};
//+
Line(3) = {2, 3};
//+
Line(4) = {3, 6};
//+
Line(5) = {6, 5};
//+
Line(6) = {5, 4};
//+
Line(7) = {4, 3};
//+
Line(8) = {6, 7};
//+
Line(9) = {7, 8};
//+
Line(10) = {8, 9};
//+
Line(11) = {9, 0};
//+
Line Loop(1) = {4, 5, 6, 7};
//+f
Line Loop(2) = {10, 11, 1, 2, 3, -7, -6, -5, 8, 9};


/*
//s
Plane Surface(1) = {1};
Recombine Surface {1};
Physical Line(1) = {7, 6, 5};
Physical Line(5) = {4};
Physical Point(5) = {3, 6};
Physical Surface(0) = {1};
*/




//+f
Plane Surface(2) = {2};
Recombine Surface {2};
Physical Line(6) = {11};
Physical Line(7) = {9};
Physical Line(3) = {1, 8, 3, 10};
Physical Line(4) = {2};
Physical Line(1) = {7, 6, 5};
Physical Point(3) = {0, 9, 8, 7};
Physical Point(5) = {1, 2, 3, 6};
Physical Surface(0) = {2};


