Mesh.MshFileVersion=2;


lc = 20;
lc1 = 5;
lc2 = 100;

Point(1) = {0,0,0,lc1};           //top left
Point(2) = {10000,0,0,lc};             //top right
Point(3) = {10000,-10000,0,lc2};       //bottom right
Point(4) = {0,-10000,0,lc2};      //bottom left


// chamber
d = 2000;
r = 1000;
Point(5) = {0,-d,0,lc1};
Point(6) = {0,-d+r,0,lc1};
Point(7) = {0,-d-r,0,lc1};
Point(8) = {r,-d,0,lc1};

Circle(1) = {6, 5, 8};
Circle(2) = {8, 5, 7};



Point(9) = {0.0, 1500.0, 0, lc1};
Point(10) = {10.0, 1499.9250018749688, 0, lc1};
Point(11) = {20.0, 1499.7000299980002, 0, lc1};
Point(12) = {30.0, 1499.3251518522213, 0, lc1};
Point(13) = {40.0, 1498.8004798720256, 0, lc1};
Point(14) = {50.0, 1498.1261713868714, 0, lc1};
Point(15) = {60.0, 1497.302428542656, 0, lc1};
Point(16) = {70.0, 1496.3294982007194, 0, lc1};
Point(17) = {80.0, 1495.2076718145493, 0, lc1};
Point(18) = {90.0, 1493.9372852842703, 0, lc1};
Point(19) = {100.0, 1492.5187187890235, 0, lc1};
Point(20) = {110.0, 1490.9523965973515, 0, lc1};
Point(21) = {120.0, 1489.23878685572, 0, lc1};
Point(22) = {130.0, 1487.3784013553259, 0, lc1};
Point(23) = {140.0, 1485.371795277352, 0, lc1};
Point(24) = {150.0, 1483.2195669168495, 0, lc1};
Point(25) = {160.0, 1480.9223573854358, 0, lc1};
Point(26) = {170.0, 1478.480850293018, 0, lc1};
Point(27) = {180.0, 1475.8957714087626, 0, lc1};
Point(28) = {190.0, 1473.1678883015454, 0, lc1};
Point(29) = {200.0, 1470.298009960133, 0, lc1};
Point(30) = {210.0, 1467.286986393356, 0, lc1};
Point(31) = {220.0, 1464.1357082105553, 0, lc1};
Point(32) = {230.0, 1460.8451061825856, 0, lc1};
Point(33) = {240.0, 1457.416150783684, 0, lc1};
Point(34) = {250.0, 1453.8498517145163, 0, lc1};
Point(35) = {260.0, 1450.1472574067298, 0, lc1};
Point(36) = {270.0, 1446.3094545093547, 0, lc1};
Point(37) = {280.0, 1442.3375673574042, 0, lc1};
Point(38) = {290.0, 1438.2327574230349, 0, lc1};
Point(39) = {300.0, 1433.9962227496499, 0, lc1};
Point(40) = {310.0, 1429.6291973693224, 0, lc1};
Point(41) = {320.0, 1425.1329507039402, 0, lc1};
Point(42) = {330.0, 1420.5087869504787, 0, lc1};
Point(43) = {340.0, 1415.7580444508146, 0, lc1};
Point(44) = {350.0, 1410.882095046513, 0, lc1};
Point(45) = {360.0, 1405.8823434190165, 0, lc1};
Point(46) = {370.0, 1400.760226415684, 0, lc1};
Point(47) = {380.0, 1395.5172123621312, 0, lc1};
Point(48) = {390.0, 1390.154800361333, 0, lc1};
Point(49) = {400.0, 1384.6745195799535, 0, lc1};
Point(50) = {410.0, 1379.0779285223848, 0, lc1};
Point(51) = {420.0, 1373.3666142929665, 0, lc1};
Point(52) = {430.0, 1367.5421918468858, 0, lc1};
Point(53) = {440.0, 1361.6063032302443, 0, lc1};
Point(54) = {450.0, 1355.560616809794, 0, lc1};
Point(55) = {460.0, 1349.4068264928474, 0, lc1};
Point(56) = {470.0, 1343.1466509378704, 0, lc1};
Point(57) = {480.0, 1336.7818327562766, 0, lc1};
Point(58) = {490.0, 1330.3141377059308, 0, lc1};
Point(59) = {500.0, 1323.7453538768932, 0, lc1};
Point(60) = {510.0, 1317.0772908699244, 0, lc1};
Point(61) = {520.0, 1310.3117789682753, 0, lc1};
Point(62) = {530.0, 1303.4506683032937, 0, lc1};
Point(63) = {540.0, 1296.495828014379, 0, lc1};
Point(64) = {550.0, 1289.4491454038134, 0, lc1};
Point(65) = {560.0, 1282.3125250870041, 0, lc1};
Point(66) = {570.0, 1275.087888138671, 0, lc1};
Point(67) = {580.0, 1267.7771712355072, 0, lc1};
Point(68) = {590.0, 1260.3823257958531, 0, lc1};
Point(69) = {600.0, 1252.905317116908, 0, lc1};
Point(70) = {610.0, 1245.3481235100126, 0, lc1};
Point(71) = {620.0, 1237.7127354345316, 0, lc1};
Point(72) = {630.0, 1230.001154630863, 0, lc1};
Point(73) = {640.0, 1222.2153932530941, 0, lc1};
Point(74) = {650.0, 1214.3574730018304, 0, lc1};
Point(75) = {660.0, 1206.429424257711, 0, lc1};
Point(76) = {670.0, 1198.4332852161272, 0, lc1};
Point(77) = {680.0, 1190.3711010236502, 0, lc1};
Point(78) = {690.0, 1182.244922916679, 0, lc1};
Point(79) = {700.0, 1174.0568073628021, 0, lc1};
Point(80) = {710.0, 1165.8088152053735, 0, lc1};
Point(81) = {720.0, 1157.5030108117894, 0, lc1};
Point(82) = {730.0, 1149.1414612259496, 0, lc1};
Point(83) = {740.0, 1140.7262353253843, 0, lc1};
Point(84) = {750.0, 1132.259402983511, 0, lc1};
Point(85) = {760.0, 1123.743034237489, 0, lc1};
Point(86) = {770.0, 1115.1791984621289, 0, lc1};
Point(87) = {780.0, 1106.569963550302, 0, lc1};
Point(88) = {790.0, 1097.9173951002942, 0, lc1};
Point(89) = {800.0, 1089.2235556105363, 0, lc1};
Point(90) = {810.0, 1080.4905036821322, 0, lc1};
Point(91) = {820.0, 1071.7202932296052, 0, lc1};
Point(92) = {830.0, 1062.914972700265, 0, lc1};
Point(93) = {840.0, 1054.0765843025965, 0, lc1};
Point(94) = {850.0, 1045.2071632440523, 0, lc1};
Point(95) = {860.0, 1036.3087369786347, 0, lc1};
Point(96) = {870.0, 1027.3833244646296, 0, lc1};
Point(97) = {880.0, 1018.4329354328519, 0, lc1};
Point(98) = {890.0, 1009.4595696657509, 0, lc1};
Point(99) = {900.0, 1000.4652162877115, 0, lc1};
Point(100) = {910.0, 991.4518530668798, 0, lc1};
Point(101) = {920.0, 982.4214457288249, 0, lc1};
Point(102) = {930.0, 973.3759472823446, 0, lc1};
Point(103) = {940.0, 964.3172973577081, 0, lc1};
Point(104) = {950.0, 955.2474215576148, 0, lc1};
Point(105) = {960.0, 946.1682308211424, 0, lc1};
Point(106) = {970.0, 937.0816208009433, 0, lc1};
Point(107) = {980.0, 927.9894712539337, 0, lc1};
Point(108) = {990.0, 918.8936454457156, 0, lc1};
Point(109) = {1000.0, 909.7959895689502, 0, lc1};
Point(110) = {1010.0, 900.6983321758984, 0, lc1};
Point(111) = {1020.0, 891.602483625328, 0, lc1};
Point(112) = {1030.0, 882.5102355439722, 0, lc1};
Point(113) = {1040.0, 873.4233603027201, 0, lc1};
Point(114) = {1050.0, 864.3436105076999, 0, lc1};
Point(115) = {1060.0, 855.2727185064075, 0, lc1};
Point(116) = {1070.0, 846.2123959090202, 0, lc1};
Point(117) = {1080.0, 837.164333125024, 0, lc1};
Point(118) = {1090.0, 828.1301989152702, 0, lc1};
Point(119) = {1100.0, 819.1116399595641, 0, lc1};
Point(120) = {1110.0, 810.1102804398793, 0, lc1};
Point(121) = {1120.0, 801.1277216392756, 0, lc1};
Point(122) = {1130.0, 792.1655415565925, 0, lc1};
Point(123) = {1140.0, 783.2252945369698, 0, lc1};
Point(124) = {1150.0, 774.3085109182445, 0, lc1};
Point(125) = {1160.0, 765.4166966932556, 0, lc1};
Point(126) = {1170.0, 756.5513331880782, 0, lc1};
Point(127) = {1180.0, 747.7138767561989, 0, lc1};
Point(128) = {1190.0, 738.9057584886311, 0, lc1};
Point(129) = {1200.0, 730.1283839399575, 0, lc1};
Point(130) = {1210.0, 721.3831328702796, 0, lc1};
Point(131) = {1220.0, 712.6713590030387, 0, lc1};
Point(132) = {1230.0, 703.9943897986645, 0, lc1};
Point(133) = {1240.0, 695.3535262439977, 0, lc1};
Point(134) = {1250.0, 686.7500426574214, 0, lc1};
Point(135) = {1260.0, 678.1851865096244, 0, lc1};
Point(136) = {1270.0, 669.6601782599149, 0, lc1};
Point(137) = {1280.0, 661.1762112079867, 0, lc1};
Point(138) = {1290.0, 652.7344513610353, 0, lc1};
Point(139) = {1300.0, 644.3360373161087, 0, lc1};
Point(140) = {1310.0, 635.9820801575722, 0, lc1};
Point(141) = {1320.0, 627.6736633695532, 0, lc1};
Point(142) = {1330.0, 619.4118427632264, 0, lc1};
Point(143) = {1340.0, 611.1976464187915, 0, lc1};
Point(144) = {1350.0, 603.0320746419823, 0, lc1};
Point(145) = {1360.0, 594.9160999349475, 0, lc1};
Point(146) = {1370.0, 586.8506669813244, 0, lc1};
Point(147) = {1380.0, 578.8366926453284, 0, lc1};
Point(148) = {1390.0, 570.8750659846697, 0, lc1};
Point(149) = {1400.0, 562.9666482770994, 0, lc1};
Point(150) = {1410.0, 555.112273060387, 0, lc1};
Point(151) = {1420.0, 547.3127461855188, 0, lc1};
Point(152) = {1430.0, 539.5688458829006, 0, lc1};
Point(153) = {1440.0, 531.8813228413485, 0, lc1};
Point(154) = {1450.0, 524.2509002996347, 0, lc1};
Point(155) = {1460.0, 516.6782741503634, 0, lc1};
Point(156) = {1470.0, 509.1641130559334, 0, lc1};
Point(157) = {1480.0, 501.7090585763461, 0, lc1};
Point(158) = {1490.0, 494.31372530861574, 0, lc1};
Point(159) = {1500.0, 486.9787010375246, 0, lc1};
Point(160) = {1510.0, 479.70454689747027, 0, lc1};
Point(161) = {1520.0, 472.491797545145, 0, lc1};
Point(162) = {1530.0, 465.34096134278275, 0, lc1};
Point(163) = {1540.0, 458.2525205517077, 0, lc1};
Point(164) = {1550.0, 451.2269315359133, 0, lc1};
Point(165) = {1560.0, 444.26462497540007, 0, lc1};
Point(166) = {1570.0, 437.36600608899516, 0, lc1};
Point(167) = {1580.0, 430.5314548663761, 0, lc1};
Point(168) = {1590.0, 423.76132630901947, 0, lc1};
Point(169) = {1600.0, 417.0559506797912, 0, lc1};
Point(170) = {1610.0, 410.41563376089596, 0, lc1};
Point(171) = {1620.0, 403.84065711989933, 0, lc1};
Point(172) = {1630.0, 397.33127838353874, 0, lc1};
Point(173) = {1640.0, 390.88773151903376, 0, lc1};
Point(174) = {1650.0, 384.5102271226104, 0, lc1};
Point(175) = {1660.0, 378.1989527149502, 0, lc1};
Point(176) = {1670.0, 371.95407304327597, 0, lc1};
Point(177) = {1680.0, 365.775730389787, 0, lc1};
Point(178) = {1690.0, 359.6640448861551, 0, lc1};
Point(179) = {1700.0, 353.61911483379527, 0, lc1};
Point(180) = {1710.0, 347.64101702962273, 0, lc1};
Point(181) = {1720.0, 341.7298070970135, 0, lc1};
Point(182) = {1730.0, 335.8855198216821, 0, lc1};
Point(183) = {1740.0, 330.1081694921938, 0, lc1};
Point(184) = {1750.0, 324.39775024483095, 0, lc1};
Point(185) = {1760.0, 318.7542364125331, 0, lc1};
Point(186) = {1770.0, 313.1775828776333, 0, lc1};
Point(187) = {1780.0, 307.6677254281154, 0, lc1};
Point(188) = {1790.0, 302.22458111711904, 0, lc1};
Point(189) = {1800.0, 296.848048625422, 0, lc1};
Point(190) = {1810.0, 291.5380086266316, 0, lc1};
Point(191) = {1820.0, 286.2943241548203, 0, lc1};
Point(192) = {1830.0, 281.1168409743433, 0, lc1};
Point(193) = {1840.0, 276.00538795157973, 0, lc1};
Point(194) = {1850.0, 270.959777428341, 0, lc1};
Point(195) = {1860.0, 265.9798055966946, 0, lc1};
Point(196) = {1870.0, 261.06525287495515, 0, lc1};
Point(197) = {1880.0, 256.2158842845973, 0, lc1};
Point(198) = {1890.0, 251.4314498278496, 0, lc1};
Point(199) = {1900.0, 246.71168486573234, 0, lc1};
Point(200) = {1910.0, 242.05631049630716, 0, lc1};
Point(201) = {1920.0, 237.46503393290817, 0, lc1};
Point(202) = {1930.0, 232.9375488821315, 0, lc1};
Point(203) = {1940.0, 228.4735359213629, 0, lc1};
Point(204) = {1950.0, 224.07266287562703, 0, lc1};
Point(205) = {1960.0, 219.73458519354867, 0, lc1};
Point(206) = {1970.0, 215.45894632221842, 0, lc1};
Point(207) = {1980.0, 211.24537808076212, 0, lc1};
Point(208) = {1990.0, 207.09350103241638, 0, lc1};
Point(209) = {2000.0, 203.00292485491906, 0, lc1};
Point(210) = {2010.0, 198.97324870902645, 0, lc1};
Point(211) = {2020.0, 195.00406160497664, 0, lc1};
Point(212) = {2030.0, 191.09494276672058, 0, lc1};
Point(213) = {2040.0, 187.24546199374933, 0, lc1};
Point(214) = {2050.0, 183.45518002035092, 0, lc1};
Point(215) = {2060.0, 179.72364887213408, 0, lc1};
Point(216) = {2070.0, 176.05041221966326, 0, lc1};
Point(217) = {2080.0, 172.43500572905262, 0, lc1};
Point(218) = {2090.0, 168.8769574093723, 0, lc1};
Point(219) = {2100.0, 165.37578795672783, 0, lc1};
Point(220) = {2110.0, 161.93101109487367, 0, lc1};
Point(221) = {2120.0, 158.54213391223286, 0, lc1};
Point(222) = {2130.0, 155.20865719519568, 0, lc1};
Point(223) = {2140.0, 151.93007575757767, 0, lc1};
Point(224) = {2150.0, 148.7058787661211, 0, lc1};
Point(225) = {2160.0, 145.53555006193048, 0, lc1};
Point(226) = {2170.0, 142.41856847773755, 0, lc1};
Point(227) = {2180.0, 139.3544081508942, 0, lc1};
Point(228) = {2190.0, 136.3425388320009, 0, lc1};
Point(229) = {2200.0, 133.38242618907952, 0, lc1};
Point(230) = {2210.0, 130.4735321072058, 0, lc1};
Point(231) = {2220.0, 127.615314983523, 0, lc1};
Point(232) = {2230.0, 124.80723001756039, 0, lc1};
Point(233) = {2240.0, 122.04872949678796, 0, lc1};
Point(234) = {2250.0, 119.33926307734153, 0, lc1};
Point(235) = {2260.0, 116.67827805985847, 0, lc1};
Point(236) = {2270.0, 114.06521966036777, 0, lc1};
Point(237) = {2280.0, 111.49953127618447, 0, lc1};
Point(238) = {2290.0, 108.98065474676116, 0, lc1};
Point(239) = {2300.0, 106.50803060945547, 0, lc1};
Point(240) = {2310.0, 104.08109835017562, 0, lc1};
Point(241) = {2320.0, 101.69929664887174, 0, lc1};
Point(242) = {2330.0, 99.3620636198435, 0, lc1};
Point(243) = {2340.0, 97.06883704684024, 0, lc1};
Point(244) = {2350.0, 94.81905461293329, 0, lc1};
Point(245) = {2360.0, 92.6121541251436, 0, lc1};
Point(246) = {2370.0, 90.44757373381394, 0, lc1};
Point(247) = {2380.0, 88.32475214671557, 0, lc1};
Point(248) = {2390.0, 86.24312883788659, 0, lc1};
Point(249) = {2400.0, 84.2021442512006, 0, lc1};
Point(250) = {2410.0, 82.20123999866804, 0, lc1};
Point(251) = {2420.0, 80.2398590534783, 0, lc1};
Point(252) = {2430.0, 78.31744593779108, 0, lc1};
Point(253) = {2440.0, 76.43344690529135, 0, lc1};
Point(254) = {2450.0, 74.5873101185244, 0, lc1};
Point(255) = {2460.0, 72.778485821031, 0, lc1};
Point(256) = {2470.0, 71.00642650430522, 0, lc1};
Point(257) = {2480.0, 69.27058706960213, 0, lc1};
Point(258) = {2490.0, 67.57042498462305, 0, lc1};
Point(259) = {2500.0, 65.90540043511113, 0, lc1};
Point(260) = {2510.0, 64.27497647139165, 0, lc1};
Point(261) = {2520.0, 62.67861914989394, 0, lc1};
Point(262) = {2530.0, 61.11579766969514, 0, lc1};
Point(263) = {2540.0, 59.58598450412793, 0, lc1};
Point(264) = {2550.0, 58.08865552749653, 0, lc1};
Point(265) = {2560.0, 56.62329013694847, 0, lc1};
Point(266) = {2570.0, 55.1893713695506, 0, lc1};
Point(267) = {2580.0, 53.78638601462079, 0, lc1};
Point(268) = {2590.0, 52.41382472136847, 0, lc1};
Point(269) = {2600.0, 51.07118210189902, 0, lc1};
Point(270) = {2610.0, 49.757956829638566, 0, lc1};
Point(271) = {2620.0, 48.473651733238334, 0, lc1};
Point(272) = {2630.0, 47.21777388601817, 0, lc1};
Point(273) = {2640.0, 45.989834691011296, 0, lc1};
Point(274) = {2650.0, 44.7893499616733, 0, lc1};
Point(275) = {2660.0, 43.61583999832012, 0, lc1};
Point(276) = {2670.0, 42.468829660360456, 0, lc1};
Point(277) = {2680.0, 41.34784843439002, 0, lc1};
Point(278) = {2690.0, 40.25243049821551, 0, lc1};
Point(279) = {2700.0, 39.18211478087735, 0, lc1};
Point(280) = {2710.0, 38.13644501874156, 0, lc1};
Point(281) = {2720.0, 37.11496980773145, 0, lc1};
Point(282) = {2730.0, 36.11724265177092, 0, lc1};
Point(283) = {2740.0, 35.142822007511846, 0, lc1};
Point(284) = {2750.0, 34.19127132541851, 0, lc1};
Point(285) = {2760.0, 33.2621590872828, 0, lc1};
Point(286) = {2770.0, 32.355058840244084, 0, lc1};
Point(287) = {2780.0, 31.469549227388576, 0, lc1};
Point(288) = {2790.0, 30.60521401500263, 0, lc1};
Point(289) = {2800.0, 29.761642116555432, 0, lc1};
Point(290) = {2810.0, 28.93842761348623, 0, lc1};
Point(291) = {2820.0, 28.13516977287156, 0, lc1};
Point(292) = {2830.0, 27.351473062048104, 0, lc1};
Point(293) = {2840.0, 26.58694716026665, 0, lc1};
Point(294) = {2850.0, 25.84120696745266, 0, lc1};
Point(295) = {2860.0, 25.113872610149, 0, lc1};
Point(296) = {2870.0, 24.404569444715797, 0, lc1};
Point(297) = {2880.0, 23.712928057862772, 0, lc1};
Point(298) = {2890.0, 23.038584264588575, 0, lc1};
Point(299) = {2900.0, 22.381179103601763, 0, lc1};
Point(300) = {2910.0, 21.740358830297268, 0, lc1};
Point(301) = {2920.0, 21.115774907362244, 0, lc1};
Point(302) = {2930.0, 20.507083993084443, 0, lc1};
Point(303) = {2940.0, 19.91394792743557, 0, lc1};
Point(304) = {2950.0, 19.336033716002206, 0, lc1};
Point(305) = {2960.0, 18.773013511835504, 0, lc1};
Point(306) = {2970.0, 18.22456459529054, 0, lc1};
Point(307) = {2980.0, 17.690369351925987, 0, lc1};
Point(308) = {2990.0, 17.17011524853314, 0, lc1};
Point(309) = {3000.0, 16.66349480736346, 0, lc};
Point(310) = {3010.0, 16.1702055786226, 0, lc};
Point(311) = {3020.0, 15.689950111298016, 0, lc};
Point(312) = {3030.0, 15.22243592238672, 0, lc};
Point(313) = {3040.0, 14.767375464588664, 0, lc};
Point(314) = {3050.0, 14.324486092530462, 0, lc};
Point(315) = {3060.0, 13.893490027583065, 0, lc};
Point(316) = {3070.0, 13.474114321336389, 0, lc};
Point(317) = {3080.0, 13.066090817792615, 0, lc};
Point(318) = {3090.0, 12.669156114339167, 0, lc};
Point(319) = {3100.0, 12.283051521561125, 0, lc};
Point(320) = {3110.0, 11.907523021952066, 0, lc};
Point(321) = {3120.0, 11.542321227581207, 0, lc};
Point(322) = {3130.0, 11.1872013367735, 0, lc};
Point(323) = {3140.0, 10.841923089858653, 0, lc};
Point(324) = {3150.0, 10.506250724043634, 0, lc};
Point(325) = {3160.0, 10.179952927462308, 0, lc};
Point(326) = {3170.0, 9.8628027924548, 0, lc};
Point(327) = {3180.0, 9.554577768127924, 0, lc};
Point(328) = {3190.0, 9.255059612247083, 0, lc};
Point(329) = {3200.0, 8.964034342508914, 0, lc};
Point(330) = {3210.0, 8.681292187242699, 0, lc};
Point(331) = {3220.0, 8.406627535587644, 0, lc};
Point(332) = {3230.0, 8.13983888719189, 0, lc};
Point(333) = {3240.0, 7.880728801478081, 0, lc};
Point(334) = {3250.0, 7.629103846519051, 0, lc};
Point(335) = {3260.0, 7.384774547566314, 0, lc};
Point(336) = {3270.0, 7.147555335272707, 0, lc};
Point(337) = {3280.0, 6.917264493649564, 0, lc};
Point(338) = {3290.0, 6.693724107797595, 0, lc};
Point(339) = {3300.0, 6.476760011449617, 0, lc};
Point(340) = {3310.0, 6.266201734362209, 0, lc};
Point(341) = {3320.0, 6.061882449592078, 0, lc};
Point(342) = {3330.0, 5.863638920692188, 0, lc};
Point(343) = {3340.0, 5.6713114488612515, 0, lc};
Point(344) = {3350.0, 5.484743820079344, 0, lc};
Point(345) = {3360.0, 5.303783252261363, 0, lc};
Point(346) = {3370.0, 5.128280342458808, 0, lc};
Point(347) = {3380.0, 4.95808901413952, 0, lc};
Point(348) = {3390.0, 4.793066464573911, 0, lc};
Point(349) = {3400.0, 4.633073112355153, 0, lc};
Point(350) = {3410.0, 4.477972545079885, 0, lc};
Point(351) = {3420.0, 4.327631467214937, 0, lc};
Point(352) = {3430.0, 4.181919648174638, 0, lc};
Point(353) = {3440.0, 4.040709870632235, 0, lc};
Point(354) = {3450.0, 3.903877879088104, 0, lc};
Point(355) = {3460.0, 3.7713023287164056, 0, lc};
Point(356) = {3470.0, 3.642864734510977, 0, lc};
Point(357) = {3480.0, 3.5184494207502874, 0, lc};
Point(358) = {3490.0, 3.3979434708004432, 0, lc};
Point(359) = {3500.0, 3.2812366772743276, 0, lc};
Point(360) = {3510.0, 3.1682214925641006, 0, lc};
Point(361) = {3520.0, 3.0587929797634215, 0, lc};
Point(362) = {3530.0, 2.9528487639949663, 0, lc};
Point(363) = {3540.0, 2.8502889841579773, 0, lc};
Point(364) = {3550.0, 2.7510162451097395, 0, lc};
Point(365) = {3560.0, 2.65493557029422, 0, lc};
Point(366) = {3570.0, 2.5619543548301924, 0, lc};
Point(367) = {3580.0, 2.4719823190705186, 0, lc};
Point(368) = {3590.0, 2.3849314626435354, 0, lc};
Point(369) = {3600.0, 2.3007160189866944, 0, lc};
Point(370) = {3610.0, 2.2192524103820177, 0, lc};
Point(371) = {3620.0, 2.140459203502142, 0, lc};
Point(372) = {3630.0, 2.0642570654751804, 0, lc};
Point(373) = {3640.0, 1.9905687204758626, 0, lc};
Point(374) = {3650.0, 1.9193189068498855, 0, lc};
Point(375) = {3660.0, 1.8504343347777414, 0, lc};
Point(376) = {3670.0, 1.7838436444837027, 0, lc};
Point(377) = {3680.0, 1.7194773649950832, 0, lc};
Point(378) = {3690.0, 1.6572678734563238, 0, lc};
Point(379) = {3700.0, 1.5971493550018807, 0, lc};
Point(380) = {3710.0, 1.5390577631914324, 0, lc};
Point(381) = {3720.0, 1.4829307810103205, 0, lc};
Point(382) = {3730.0, 1.4287077824377303, 0, lc};
Point(383) = {3740.0, 1.376329794584568, 0, lc};
Point(384) = {3750.0, 1.325739460402575, 0, lc};
Point(385) = {3760.0, 1.2768810019657477, 0, lc};
Point(386) = {3770.0, 1.2297001843247113, 0, lc};
Point(387) = {3780.0, 1.1841442799342514, 0, lc};
Point(388) = {3790.0, 1.1401620336538607, 0, lc};
Point(389) = {3800.0, 1.0977036283207091, 0, lc};
Point(390) = {3810.0, 1.0567206508941023, 0, lc};
Point(391) = {3820.0, 1.0171660591701581, 0, lc};
Point(392) = {3830.0, 0.9789941490650311, 0, lc};
Point(393) = {3840.0, 0.9421605224647462, 0, lc};
Point(394) = {3850.0, 0.9066220556393332, 0, lc};
Point(395) = {3860.0, 0.8723368682187033, 0, lc};
Point(396) = {3870.0, 0.8392642927273715, 0, lc};
Point(397) = {3880.0, 0.8073648446748936, 0, lc};
Point(398) = {3890.0, 0.7766001931985895, 0, lc};
Point(399) = {3900.0, 0.7469331322549102, 0, lc};
Point(400) = {3910.0, 0.7183275523555349, 0, lc};
Point(401) = {3920.0, 0.6907484128440746, 0, lc};
Point(402) = {3930.0, 0.6641617147090555, 0, lc};
Point(403) = {3940.0, 0.6385344739286264, 0, lc};
Point(404) = {3950.0, 0.6138346953422683, 0, lc};
Point(405) = {3960.0, 0.5900313470445913, 0, lc};
Point(406) = {3970.0, 0.5670943352961403, 0, lc};
Point(407) = {3980.0, 0.5449944799459661, 0, lc};
Point(408) = {3990.0, 0.5237034903605814, 0, lc};
Point(409) = {4000.0, 0.5031939418537678, 0, lc};
Point(410) = {4010.0, 0.4834392526115881, 0, lc};
Point(411) = {4020.0, 0.4644136611068257, 0, lc};
Point(412) = {4030.0, 0.4460922039969616, 0, lc};
Point(413) = {4040.0, 0.42845069449972256, 0, lc};
Point(414) = {4050.0, 0.4114657012401018, 0, lc};
Point(415) = {4060.0, 0.3951145275627054, 0, lc};
Point(416) = {4070.0, 0.37937519130318303, 0, lc};
Point(417) = {4080.0, 0.3642264050124407, 0, lc};
Point(418) = {4090.0, 0.34964755662726105, 0, lc};
Point(419) = {4100.0, 0.33561869058093086, 0, lc};
Point(420) = {4110.0, 0.3221204893473896, 0, lc};
Point(421) = {4120.0, 0.30913425541241807, 0, lc};
Point(422) = {4130.0, 0.2966418936653139, 0, lc};
Point(423) = {4140.0, 0.2846258942045037, 0, lc};
Point(424) = {4150.0, 0.27306931555050956, 0, lc};
Point(425) = {4160.0, 0.2619557682596692, 0, lc};
Point(426) = {4170.0, 0.25126939893201633, 0, lc};
Point(427) = {4180.0, 0.24099487460671193, 0, lc};
Point(428) = {4190.0, 0.23111736753842163, 0, lc};
Point(429) = {4200.0, 0.22162254034805046, 0, lc};
Point(430) = {4210.0, 0.21249653154124967, 0, lc};
Point(431) = {4220.0, 0.20372594138813252, 0, lc};
Point(432) = {4230.0, 0.19529781815765648, 0, lc};
Point(433) = {4240.0, 0.18719964470015613, 0, lc};
Point(434) = {4250.0, 0.17941932537153654, 0, lc};
Point(435) = {4260.0, 0.1719451732926814, 0, lc};
Point(436) = {4270.0, 0.16476589793765314, 0, lc};
Point(437) = {4280.0, 0.157870593044316, 0, lc};
Point(438) = {4290.0, 0.15124872484105037, 0, lc};
Point(439) = {4300.0, 0.14489012058327602, 0, lc};
Point(440) = {4310.0, 0.1387849573935517, 0, lc};
Point(441) = {4320.0, 0.13292375139907384, 0, lc};
Point(442) = {4330.0, 0.12729734716044766, 0, lc};
Point(443) = {4340.0, 0.12189690738566807, 0, lc};
Point(444) = {4350.0, 0.11671390292330645, 0, lc};
Point(445) = {4360.0, 0.1117401030289576, 0, lc};
Point(446) = {4370.0, 0.10696756589907237, 0, lc};
Point(447) = {4380.0, 0.10238862946636483, 0, lc};
Point(448) = {4390.0, 0.0979959024510482, 0, lc};
Point(449) = {4400.0, 0.09378225566223039, 0, lc};
Point(450) = {4410.0, 0.0897408135438653, 0, lc};
Point(451) = {4420.0, 0.08586494595972977, 0, lc};
Point(452) = {4430.0, 0.08214826021197263, 0, lc};
Point(453) = {4440.0, 0.07858459328785418, 0, lc};
Point(454) = {4450.0, 0.07516800432937151, 0, lc};
Point(455) = {4460.0, 0.07189276732054195, 0, lc};
Point(456) = {4470.0, 0.06875336398719438, 0, lc};
Point(457) = {4480.0, 0.06574447690419467, 0, lc};
Point(458) = {4490.0, 0.06286098280511455, 0, lc};
Point(459) = {4500.0, 0.060097946089426604, 0, lc};
Point(460) = {4510.0, 0.057450612522392655, 0, lc};
Point(461) = {4520.0, 0.0549144031228902, 0, lc};
Point(462) = {4530.0, 0.05248490823450199, 0, lc};
Point(463) = {4540.0, 0.05015788177527523, 0, lc};
Point(464) = {4550.0, 0.04792923566163456, 0, lc};
Point(465) = {4560.0, 0.04579503440201774, 0, lc};
Point(466) = {4570.0, 0.04375148985587779, 0, lc};
Point(467) = {4580.0, 0.0417949561537795, 0, lc};
Point(468) = {4590.0, 0.039921924774397426, 0, lc};
Point(469) = {4600.0, 0.03812901977429887, 0, lc};
Point(470) = {4610.0, 0.036412993166479654, 0, lc};
Point(471) = {4620.0, 0.034770720443695065, 0, lc};
Point(472) = {4630.0, 0.03319919624270929, 0, lc};
Point(473) = {4640.0, 0.031695530145663016, 0, lc};
Point(474) = {4650.0, 0.030256942614837253, 0, lc};
Point(475) = {4660.0, 0.028880761057168525, 0, lc};
Point(476) = {4670.0, 0.027564416014944918, 0, lc};
Point(477) = {4680.0, 0.02630543747919054, 0, lc};
Point(478) = {4690.0, 0.025101451322318273, 0, lc};
Point(479) = {4700.0, 0.02395017584670712, 0, lc};
Point(480) = {4710.0, 0.022849418445932003, 0, lc};
Point(481) = {4720.0, 0.02179707237544704, 0, lc};
Point(482) = {4730.0, 0.020791113629595386, 0, lc};
Point(483) = {4740.0, 0.019829597921889118, 0, lc};
Point(484) = {4750.0, 0.018910657765572783, 0, lc};
Point(485) = {4760.0, 0.01803249965155347, 0, lc};
Point(486) = {4770.0, 0.017193401320848248, 0, lc};
Point(487) = {4780.0, 0.016391709128767418, 0, lc};
Point(488) = {4790.0, 0.015625835498117874, 0, lc};
Point(489) = {4800.0, 0.014894256458776622, 0, lc};
Point(490) = {4810.0, 0.014195509271049114, 0, lc};
Point(491) = {4820.0, 0.013528190130289582, 0, lc};
Point(492) = {4830.0, 0.012890951950324013, 0, lc};
Point(493) = {4840.0, 0.012282502223277298, 0, lc};
Point(494) = {4850.0, 0.01170160095346626, 0, lc};
Point(495) = {4860.0, 0.011147058663080592, 0, lc};
Point(496) = {4870.0, 0.010617734467430811, 0, lc};
Point(497) = {4880.0, 0.01011253421760106, 0, lc};
Point(498) = {4890.0, 0.009630408708399743, 0, lc};
Point(499) = {4900.0, 0.009170351949557103, 0, lc};
Point(500) = {4910.0, 0.008731399498172834, 0, lc};
Point(501) = {4920.0, 0.008312626850469877, 0, lc};
Point(502) = {4930.0, 0.007913147890963305, 0, lc};
Point(503) = {4940.0, 0.007532113397203982, 0, lc};
Point(504) = {4950.0, 0.0071687095983069575, 0, lc};
Point(505) = {4960.0, 0.006822156785523983, 0, lc};
Point(506) = {4970.0, 0.006491707973167502, 0, lc};
Point(507) = {4980.0, 0.006176647608240729, 0, lc};
Point(508) = {4990.0, 0.00587629032717466, 0, lc};
Point(509) = {5000.0, 0.005589979758118006, 0, lc};
Point(510) = {5050.0, 0.004348042161949406, 0, lc};
Point(511) = {5100.0, 0.003373583950548514, 0, lc};
Point(512) = {5150.0, 0.0026109800947399456, 0, lc};
Point(513) = {5200.0, 0.002015718416447282, 0, lc};
Point(514) = {5250.0, 0.001552281316664063, 0, lc};
Point(515) = {5300.0, 0.0011924090423023712, 0, lc};
Point(516) = {5350.0, 0.0009136804973273287, 0, lc};
Point(517) = {5400.0, 0.000698357357367463, 0, lc};
Point(518) = {5450.0, 0.0005324457130456981, 0, lc};
Point(519) = {5500.0, 0.0004049367755044521, 0, lc};
Point(520) = {5600.0, 0.00023246297035543452, 0, lc};
Point(521) = {5700.0, 0.00013212268794690835, 0, lc};
Point(522) = {5800.0, 7.434607978758748e-05, 0, lc};
Point(523) = {5900.0, 4.1418636852420526e-05, 0, lc};
Point(524) = {6000.0, 2.2844969617068944e-05, 0, lc};
Point(525) = {6500.0, 1.0037379136939171e-06, 0, lc};
Point(526) = {7000.0, 3.4346022684683296e-08, 0, lc};
Point(527) = {7500.0, 9.152905016407986e-10, 0, lc};
Point(528) = {8000.0, 1.8996248323641263e-11, 0, lc};
Point(529) = {9000.0, 3.865135663732471e-15, 0, lc};
Point(530) = {9990.0, 3.1972374944474865e-19, 0, lc};


Line(3) = {9, 10, 11, 12, 13, 14, 15, 16, 17, 18, 19, 20, 21, 22, 23, 24, 25, 26, 27, 28, 29, 30, 31, 32, 33, 34, 35, 36, 37, 38, 39, 40, 41, 42, 43, 44, 45, 46, 47, 48, 49, 50, 51, 52, 53, 54, 55, 56, 57, 58, 59, 60, 61, 62, 63, 64, 65, 66, 67, 68, 69, 70, 71, 72, 73, 74, 75, 76, 77, 78, 79, 80, 81, 82, 83, 84, 85, 86, 87, 88, 89, 90, 91, 92, 93, 94, 95, 96, 97, 98, 99, 100, 101, 102, 103, 104, 105, 106, 107, 108, 109, 110, 111, 112, 113, 114, 115, 116, 117, 118, 119, 120, 121, 122, 123, 124, 125, 126, 127, 128, 129, 130, 131, 132, 133, 134, 135, 136, 137, 138, 139, 140, 141, 142, 143, 144, 145, 146, 147, 148, 149, 150, 151, 152, 153, 154, 155, 156, 157, 158, 159, 160, 161, 162, 163, 164, 165, 166, 167, 168, 169, 170, 171, 172, 173, 174, 175, 176, 177, 178, 179, 180, 181, 182, 183, 184, 185, 186, 187, 188, 189, 190, 191, 192, 193, 194, 195, 196, 197, 198, 199, 200, 201, 202, 203, 204, 205, 206, 207, 208, 209, 210, 211, 212, 213, 214, 215, 216, 217, 218, 219, 220, 221, 222, 223, 224, 225, 226, 227, 228, 229, 230, 231, 232, 233, 234, 235, 236, 237, 238, 239, 240, 241, 242, 243, 244, 245, 246, 247, 248, 249, 250, 251, 252, 253, 254, 255, 256, 257, 258, 259, 260, 261, 262, 263, 264, 265, 266, 267, 268, 269, 270, 271, 272, 273, 274, 275, 276, 277, 278, 279, 280, 281, 282, 283, 284, 285, 286, 287, 288, 289, 290, 291, 292, 293, 294, 295, 296, 297, 298, 299, 300, 301, 302, 303, 304, 305, 306, 307, 308, 309, 310, 311, 312, 313, 314, 315, 316, 317, 318, 319, 320, 321, 322, 323, 324, 325, 326, 327, 328, 329, 330, 331, 332, 333, 334, 335, 336, 337, 338, 339, 340, 341, 342, 343, 344, 345, 346, 347, 348, 349, 350, 351, 352, 353, 354, 355, 356, 357, 358, 359, 360, 361, 362, 363, 364, 365, 366, 367, 368, 369, 370, 371, 372, 373, 374, 375, 376, 377, 378, 379, 380, 381, 382, 383, 384, 385, 386, 387, 388, 389, 390, 391, 392, 393, 394, 395, 396, 397, 398, 399, 400, 401, 402, 403, 404, 405, 406, 407, 408, 409, 410, 411, 412, 413, 414, 415, 416, 417, 418, 419, 420, 421, 422, 423, 424, 425, 426, 427, 428, 429, 430, 431, 432, 433, 434, 435, 436, 437, 438, 439, 440, 441, 442, 443, 444, 445, 446, 447, 448, 449, 450, 451, 452, 453, 454, 455, 456, 457, 458, 459, 460, 461, 462, 463, 464, 465, 466, 467, 468, 469, 470, 471, 472, 473, 474, 475, 476, 477, 478, 479, 480, 481, 482, 483, 484, 485, 486, 487, 488, 489, 490, 491, 492, 493, 494, 495, 496, 497, 498, 499, 500, 501, 502, 503, 504, 505, 506, 507, 508, 509, 510, 511, 512, 513, 514, 515, 516, 517, 518, 519, 520, 521, 522, 523, 524, 525, 526, 527, 528, 529, 530}; 
//+
Line(4) = {4, 3};
//+
Line(5) = {3, 2};
//+
Line(6) = {2, 530};
//+
Line(7) = {4, 7};
//+
Line(8) = {6, 1};
//+
Line(9) = {1, 9};
//+
Line Loop(1) = {7, -2, -1, 8, 9, 3, -6, -5, -4};
//+
Plane Surface(1) = {1};
//+
Physical Surface(1) = {1};
//+
Physical Line(5) = {4, 5};
//+
Physical Line(6) = {1, 2};
//+
Physical Line(3) = {7, 8, 9};
//+
Physical Line(2) = {3, 6};
//+
Physical Point(5) = {4, 3, 2};
//+
Physical Point(3) = {9, 6, 7};
