// Parametres geometriques

lc = 0.45;
lc1 = 0.9;

Point(1) = {-76.00,  10.02208103, 0.0, lc};
Point(2) = {-72.00,  10.03004055, 0.0, lc};
Point(3) = {-68.00,  10.04083953, 0.0, lc};
Point(4) = {-64.00,  10.05546572, 0.0, lc};
Point(5) = {-60.00,  10.07522913, 0.0, lc};
Point(6) = {-56.00,  10.10184914, 0.0, lc};
Point(7) = {-52.00,  10.13754957, 0.0, lc};
Point(8) = {-48.00,  10.18514719, 0.0, lc};
Point(9) = {-44.00,  10.24810293, 0.0, lc};
Point(10) = {-40.00,  10.33047896, 0.0, lc};
Point(11) = {-36.00,  10.43670726, 0.0, lc};
Point(12) = {-32.00,  10.57103237, 0.0, lc};
Point(13) = {-28.00,  10.73646479, 0.0, lc};
Point(14) = {-24.00,  10.93312470, 0.0, lc};
Point(15) = {-20.00,  11.15605426, 0.0, lc};
Point(16) = {-16.00,  11.39301104, 0.0, lc};
Point(17) = {-12.00,  11.62336756, 0.0, lc};
Point(18) = { -8.00,  11.81965145, 0.0, lc};
Point(19) = { -4.00,  11.95275768, 0.0, lc};
Point(20) = {  0.00,  12.00000000, 0.0, lc};
Point(21) = {  4.00,  11.95275768, 0.0, lc};
Point(22) = {  8.00,  11.81965145, 0.0, lc};
Point(23) = { 12.00,  11.62336756, 0.0, lc};
Point(24) = { 16.00,  11.39301104, 0.0, lc};
Point(25) = { 20.00,  11.15605426, 0.0, lc};
Point(26) = { 24.00,  10.93312470, 0.0, lc};
Point(27) = { 28.00,  10.73646479, 0.0, lc};
Point(28) = { 32.00,  10.57103237, 0.0, lc};
Point(29) = { 36.00,  10.43670726, 0.0, lc};
Point(30) = { 40.00,  10.33047896, 0.0, lc};
Point(31) = { 44.00,  10.24810293, 0.0, lc};
Point(32) = { 48.00,  10.18514719, 0.0, lc};
Point(33) = { 52.00,  10.13754957, 0.0, lc};
Point(34) = { 56.00,  10.10184914, 0.0, lc};
Point(35) = { 60.00,  10.07522913, 0.0, lc};
Point(36) = { 64.00,  10.05546572, 0.0, lc};
Point(37) = { 68.00,  10.04083953, 0.0, lc};
Point(38) = { 72.00,  10.03004055, 0.0, lc};
Point(39) = { 76.00,  10.02208103, 0.0, lc};
Point(40) = { 80.00,  10.01622179, 0.0, lc};

Point(41) = { 80.00,  0.0, 0.0, lc1};
Point(42) = { -80.00,  0.0, 0.0, lc1};

Point(43) = {-80.00,  10.01622179, 0.0, lc};


Line(1) = {
43,1,2,3,4,5,6,7,8,9,10,
11,12,13,14,15,16,17,18,19,20,
21,22,23,24,25,26,27,28,29,30,
31,32,33,34,35,36,37,38,39,40};

Line(2) = {40, 41};
Line(3) = {41, 42};
Line(4) = {42, 43};

Line Loop(7) = -{1,2,3,4};
Plane Surface(8) = {7};

Recombine Surface{8};

Transfinite Line {1, 3} = 301 Using Progression 1;
Transfinite Line {4, 2} = 31 Using Progression 1;
Transfinite Surface{8};

Physical Surface(0) = {8};
Physical Line(2) = {1};
Physical Line(4) = {4, 2};
Physical Line(5) = {3};
Physical Point(7) = {41,42};
Physical Point(6) = {40,43};

Mesh.MshFileVersion = 2;
