fluid
{
     mix     
     {
        magma_class_laura      
        {
            name                  krafla_magma
        }
        
        water_steam
        {
            name                  water_steam        
        }        
     }            
}
